Imputation of incomplete multilevel data
…
This procedure has fixed the missing experience value

Does not work if there are inconsistencies within clusters! But we can do this manually.

dat |>
  group_by(cluster_id) |>
  reframe(teacher_experience = unique(experience_j))

# A tibble: 102 × 2
   cluster_id teacher_experience
        <dbl>              <dbl>
 1          1                  4
 2          1                 NA
 3          1                 24
 4          2                 14
 5          3                 13
 6          4                 20
 7          5                  5
 8          6                  8
 9          7                 17
10          8                 12
# ℹ 92 more rows
…
